Strain,H20,CBD,CBDA,THCA,THC-d-9,THC,as-is-THCA-total,as-is-THC-d-9-total,as-is-THC-total,as-is-CBD-total,CBC,CBDV,CBDVA,CBG,CBN,THC-d-8,THCV,a-pinene,Camphene,Myrcene,b-Pinene,3-carene,a-terpinene,D-limonene,p-cymene,Ocimene,Eucalyptol,g-terpinene,Terpinolene,Linalool,Iso-Pulegol,Geraniol,b-Caryophyllene,a-Humulene,Nerolidol 1,Nerolidol 2,Guiaol,Caryophylene Oxide,a-Bisabolol,Total Terpene,b-Ocimene
"Double Sour D ""Mint""",10.56,0,0,193,11.7,20.23,ND,ND,ND,ND,0,0,0,1.05,0,0,0,1.61,0,1.38,1.19,0,0,1.62,0,0,0,0,5.7,0.72,0,0,2.65,0.59,0,0,0,0,0,ND,0.51
AC/DC,10.5,13,134,36,0,3.5,4,0,3.1,11.6,ND,ND,ND,ND,ND,ND,ND,3.17,0,13.29,1.21,0,0.07,1.27,0.01,0,0,0.07,0.08,0.79,0,0,2.02,0.65,0,0,0.53,0,0.81,23.97,ND
Acapulco Gold,8.6,0,0,250,2.29,24.24,ND,ND,ND,ND,0,0,0,1.06,0,0,0,0,0,2.71,0,0,0,3.47,0,0,0,0,0,1.74,0,0,3.98,1.03,0,0.38,0,0,0,ND,0
ACDC/Harlequin,14.8,5.6,55,138,0,14.1,14,0,12,4.8,ND,ND,ND,ND,ND,ND,ND,0.22,0.04,3.66,0.15,0,0,1.72,0.05,0.08,0.06,0.04,0.04,0.39,0,0,3.11,1.2,0,0,0.2,0,0.32,11.28,ND
Alaskan Blackberry F2,10.37,0,0,198,0.85,19.47,ND,ND,ND,ND,0,0,0,1.43,0,0,0,1.38,0,3.64,0,0,0,0,0,0,0,0,0,0.65,0,0,2.97,0.64,0,0,0,0,0,ND,0.58
Albert Walker,12.82,0,0,213,4.63,21.96,ND,ND,ND,ND,0,0,0,3.27,0,0,0,0,0,10.79,0,0,0,0,0,0,0,0,0,0.82,0,0,1.88,0,0,0,0,0,0,ND,0
Allen Wrench,10.52,0,0,241,4.78,24.16,ND,ND,ND,ND,0,0,0,0.8,0,0,0,0,0,1.96,0,0,0,2.64,0,0,0,0,0,0.97,0,0,6.88,1.96,0,0,0,0,1.3,ND,0
Ancient Art,10.04,8.76,89.9,131,5.77,13.41,ND,ND,ND,ND,0,0,0,0,0,0,0,3.35,0,16.78,1.67,0,0,2.32,0,0,0,0,1.3,0.52,0,0,2.7,0.62,0,0,0.81,0,0,ND,0
Berry White,8.32,0,0,197,6.56,19.56,ND,ND,ND,ND,0,0,0,1.36,0,0,0,1.12,0,1.36,1.01,0,0,5.39,0,0,0,0,0,0,0,0,2.07,0,0,0,0,0,0,ND,1.25
Black Betty,10.05,0.12,0,273,7.67,27.47,ND,ND,ND,ND,0,0,0,2.05,0,0,0,0,0,11.55,0,0,0,1.75,0,0,0,0,0,0.78,0,0,1.76,0,0,0,0.61,0,0,ND,0
Black Cherry Soda,9.2,0,0,109,0,10.4,11,0,9.5,0,ND,ND,ND,ND,ND,ND,ND,0.5,0.06,1.18,0.59,0.16,0.18,1.84,0.04,1.56,0.03,0.21,3.01,0.36,0,0,1.63,0.59,0,0,0,0,0.4,12.33,ND
Black Cherry Trinity,9.48,0,0,190,11.2,19.64,ND,ND,ND,ND,0.69,0,0,1.26,0,0,0,1.11,0,5.94,0.63,0,0,1.29,0,0,0,0,0,0.73,0,0,2.46,0.55,0,0,0,0,0,ND,0.61
Black Dog,8.98,0,0,159,0,15.32,ND,ND,ND,ND,0,0,0,0,0,0,0,0,0,1.51,0,0,0,3.18,0,0,0,0,0,0.69,0,0,3.71,0.87,0.25,0,0,0,0.69,ND,0
Black Lime Reserve,12.1,0,0,200,0,19.8,20,0,17.4,0,ND,ND,ND,ND,ND,ND,ND,3.66,0.09,6.41,1.15,0,0.04,1.27,0,0.11,0,0.04,0.07,0.6,0,0,3.17,1.13,0,0,0,0,0.47,18.21,ND
Black Widow,10.3,0,0,299,0,29,30,0,26,0,ND,ND,ND,ND,ND,ND,ND,1.11,0.06,4.24,1.25,0.62,0.6,2.35,0.26,4.78,0.1,0.66,11.09,0.29,0,0,0.63,0.3,0,0.44,0.47,0,0,29.26,ND
Black Widow,12.69,0.36,0,167,8.61,17.76,ND,ND,ND,ND,0,0,0,0.81,0,0,0,0,0,2.02,0,0,0,1.08,0,0,0,0,9.41,0,0,0,0.78,0,0,0,0.83,0,0,ND,2.61
Blackberry Cobbler,8.44,0,0,153,14.3,16.22,ND,ND,ND,ND,0,0,0,0,0,0,0,1.32,0,6.79,0.67,0,0,1.02,0,0,0,0,0,0,0,0,1.54,0,0,0,0.83,0,0,ND,0
Blackberry Swirl,9.4,0,0,214,0,20.6,21,0,18.6,0,ND,ND,ND,ND,ND,ND,ND,0.56,0.19,0.33,0.51,0,0.03,3.79,0,0.15,0,0.03,0.1,0.75,0,0,1.58,0.55,0.12,0,0,0,0.17,8.87,ND
Blue Berry Blast,9.76,0,0,220,8.12,22.28,ND,ND,ND,ND,0,0,0,0,0,0,0,2.56,0,6.52,1.2,0,0,0.9,0,0,0,0,0,0.78,0,0,3.08,0.91,0,0,0,0,0,ND,0
Blue City Diesel,12.63,0,0,156,8.09,16.58,ND,ND,ND,ND,0,0,0,0.77,0,0,0,0,0,5.37,0,0,0,2.69,0,0,0,0,0,1.33,0,0,1.63,0,0,0,0,0,0.77,ND,0
Blue Dragon Desert Frost,10.76,14.26,142,7,0,0.74,ND,ND,ND,ND,0,0,1.49,0,0,0,0,0,0,2.77,0,0,0,0.89,0,0,0,0,0,0,0,0,1.26,0,0,0,0,0,0.57,ND,0.82
Blue Dream,11.5,0,0,237,0,23.3,24,0,20.6,0,ND,ND,ND,ND,ND,ND,ND,4.62,0.08,9.91,1.71,0,0.04,0.67,0,0.14,0,0.04,0.06,0.5,0,0,1.58,0.6,0,0,0,0,0.38,20.32,ND
Blue Dream,10.54,0,0,218,3.09,21.72,ND,ND,ND,ND,0,0,0,0.76,0,0,0,3.05,0,7.11,1.45,0,0,0.7,0,0,0,0,0,0.6,0,0,1.99,0.55,0,0,0,0,0,ND,0
Blueberry,9.9,0,0,159,0,15.4,16,0,13.8,0,ND,ND,ND,ND,ND,ND,ND,2.75,0.12,5.99,0.98,0.18,0.13,0.98,0.18,0.12,0.03,0.19,0.63,0.22,0,0,0.76,0.29,0,0,0.17,0,0.26,13.96,ND
Bruce Banner,9.04,0.14,0.64,319,5.77,31.39,ND,ND,ND,ND,0,0,0,1.89,0,0,0,0,0,5.06,0.75,0,0,5.32,0,0,0,0,0,1.73,0,0,4.3,1.53,0,0,0,0,0,ND,0
Bubba,11.3,0,0,248,9.99,25.65,ND,ND,ND,ND,0,0,0,1.23,0,0,0,0,0,0.57,0,0,0,4.48,0,0,0,0,0,0,0,0,4.74,1.19,0.64,0,0,0,1.04,ND,0
Bubblegum,12,0,0,223,0,22,22,0,19.4,0,ND,ND,ND,ND,ND,ND,ND,0.55,0.18,3.03,0.75,0,0,5.19,0,0.1,0,0.03,0,2.95,0,0,4.04,1.67,0,0,0,0,0.54,19.02,ND
Canna Wreck,8.15,16.42,170,9,0,0.86,ND,ND,ND,ND,0,0,0.68,1.53,0,0,0,0,0,2.78,0,0,0,0.93,0,0,0,0,0,0,0,0,3.26,0.89,0,0,0.58,0,1.3,ND,0
Cannatonic,10.1,15,155,52,0,5,5,0,4.5,13.5,ND,ND,ND,ND,ND,ND,ND,1.44,0.06,6.3,0.59,0,0.04,0.9,0.42,0.18,0.06,0.04,0.12,0.52,0,0,1.57,0.55,0,0,0.39,0.07,0.35,13.61,ND
Cannatonic,9.79,11.82,119,52,1.5,5.26,ND,ND,ND,ND,0,0,0,1.5,0,0,0,1.17,0,6.53,0.53,0,0,0.77,0,0,0,0,0,0.58,0,0,1.17,0,0,0,0,0,0,ND,0
Cannatonic,9.01,11.01,107,4,0,0.45,ND,ND,ND,ND,1.04,0,0,0,0,0,0,0,0,3.77,0,0,0,0,0,0,0,0,0,0,0,0,0,0,0,0,0.56,0,0.64,ND,0
Cannatonic #1,8,9.5,100,0,0,0,0,0,0,8.7,ND,ND,ND,ND,ND,ND,ND,1.04,0.02,1.98,0.33,0,0.02,0.26,0.09,0.07,0.01,0.02,0.03,0.25,0,0,1.4,0.48,0,0,0.25,0,0.56,6.81,ND
Cannatonic 4,8.21,9.04,87.5,107,4.55,10.72,ND,ND,ND,ND,0.97,0,0,0.98,0,0,0,1.02,0,6.2,0.52,0,0,0.94,0,0,0,0,0,0.71,0,0,2.85,0.74,0,0,1.11,0,1.01,ND,0
Cascade Chronic,10.18,0.42,0,198,9.13,20.35,ND,ND,ND,ND,0,0,0,0,0,0,0,0,0,4.87,0.6,0,0,1.32,0,1.5,0,0,9.89,0,0,0,2.18,0,0,0,0,0,0.87,ND,2.42
Cascade Lemonade,8.9,0,0,115,0,11,12,0,10,0,ND,ND,ND,ND,ND,ND,ND,0.63,0,1.54,0.11,0,0,0.17,0,3.28,0,0.02,0.02,0.32,0,0,1.29,0.44,0,0,0.24,0,0.16,8.22,ND
Cbd Blue Dream,9.77,7.57,75.6,68,2.31,6.91,ND,ND,ND,ND,0,0,0,0,0,0,0,1.99,0,5.2,0.81,0,0,0.88,0,0,0,0,0,0.74,0,0,0.81,0,0,0,0,0,0,ND,0
CBD Critical Mass,10.1,10.4,107,70,0,6.8,7,0,6.1,9.3,ND,ND,ND,ND,ND,ND,ND,3,0.04,8.42,1.07,0,0.04,0.88,0.17,0,0,0.04,0.07,0.8,0,0,1.89,0.79,0,0,0.48,0,0,17.69,ND
Cbd Green Crack,9.83,7.46,72.8,42,1.95,4.31,ND,ND,ND,ND,0,0,0,0,0,0,0,0,0,3.08,0,0,0,0,0,0,0,0,0,0,0,0,0.87,0,0,0,0,0,0,ND,0.51
Cbd Kush,9.75,11.97,122,111,1.48,10.95,ND,ND,ND,ND,0,0,0.8,0,0,0,0,0,0,1.97,0,0,0,3.49,0,0,0,0,0,0.53,0,0,3.39,0.9,0,0,0,0,0.95,ND,0
Cbd Skunk Haze,12.38,9.6,90.5,49,7.63,5.86,ND,ND,ND,ND,0.75,0,0,0.85,0,0,0,0.96,0,1.84,0,0,0,0,0,0,0,0,0,0.89,0,0,2.01,0.68,0,0,0.72,0,0.93,ND,0
CBD Therapy,9.3,9.6,100,0,0,0,0,0,0,8.7,ND,ND,ND,ND,ND,ND,ND,1.59,0.03,6.91,0.61,0,0.03,0.8,0.21,0,0,0.02,0.04,0.34,0,0,1.8,0.56,0,0,0.78,0,0.31,14.03,ND
CBD x Shark Shock,9.3,5.7,59,55,0,5.3,6,0,4.8,5.1,ND,ND,ND,ND,ND,ND,ND,0.11,0.04,1.67,0,0,0,0.85,0.07,0,0,0.03,0.05,0.12,0,0,2.95,1.24,0,0,0,0,0.11,7.25,ND
CBDiesel,12,4.6,47,52,0,5.1,5,0,4.5,4.1,ND,ND,ND,ND,ND,ND,ND,1.48,0.03,6.07,0.42,0,0.04,0.59,0.04,0.58,0.01,0.03,0.04,0.65,0,0,0.46,0.18,0,0,0,0,0.32,10.94,ND
Champagne Diesel,8.5,0,0,138,0,13.1,14,0,12,0,ND,ND,ND,ND,ND,ND,ND,1.5,0.2,0.56,0.8,0,0.03,5.18,0,0.31,0,0.03,0.1,1.09,0,0,2.8,0.96,0,0,0,0,0.35,13.91,ND
CHEM 4,8.6,0,0,203,0,19.3,20,0,17.7,0,ND,ND,ND,ND,ND,ND,ND,0.18,0.04,1.16,0.22,0,0.03,1.57,0,0.15,0.05,0.03,0.04,0.37,0,0,5.48,2.03,0,0,0,0,0.87,12.23,ND
Cherry 1,10.5,0,0,225,0,21.9,23,0,19.6,0,ND,ND,ND,ND,ND,ND,ND,0.58,0.2,2.47,0.49,0,0.05,3.26,0,0.18,0.1,0.05,0.11,1.97,0,0,4.89,2.08,0,0,0,0,0.53,16.97,ND
Cherry Kush,11.85,0,0,140,19.2,16.11,ND,ND,ND,ND,0,0,0,0,0,0,0,2.17,0,11.03,0.54,0,0,0,0,0,0,0,0,0.54,0,0,6.58,2.34,0,0.37,0,0,0,ND,1.11
Cherry Wine,9,14.9,156,0,0,0,0,0,0,13.6,ND,ND,ND,ND,ND,ND,ND,0.14,0.02,3.14,0.08,0,0,0.83,0.12,0.08,0,0.02,0.05,0.17,0,0,1.08,0.41,0,0,0.21,0,0.28,6.64,ND
Chocolate Hashberry,9.31,0,0,241,4.67,23.82,ND,ND,ND,ND,0,0,0,0,0,0,0,0,0,9.51,0,0,0,1.62,0,0,0,0,0,0,0,0,3.02,0.95,0.24,0,0,0,0,ND,0
Chocolate Mint Og,12.33,0,0,116,5.95,12.28,ND,ND,ND,ND,0,0,0,0,0,0,0,0,0,0,0,0,0,1.75,0,0,0,0,0,2.22,0,0,3.51,0.89,0,0.37,0,0,0.7,ND,0
Chuy Purps,12,0,0,222,0,22,22,0,19.3,0,ND,ND,ND,ND,ND,ND,ND,0.25,0.07,5.17,0.14,0,0.04,1.48,0,0.13,0.03,0.03,0.11,1.28,0,0,2.41,0.78,0,0,0,0,0.23,12.15,ND
Cinex,9.02,0,0,147,4.85,14.7,ND,ND,ND,ND,0,0,0,1.99,0,0,0,0.56,0,1.09,0.93,0,0,5.72,0,0,0,0,0,1.35,0,0,2.37,0,0,0,1.05,0,0,ND,0
Cinex,12.18,0,0,172,1.41,17.34,ND,ND,ND,ND,0,0,0,2.64,0,0,0,0.69,0,0.85,0.93,0,0,4.72,0,0,0,0,0,1.33,0,0,1.84,0,0,0,1,0,0,ND,0
Cinex,10.77,0,0,159,3.54,16.02,ND,ND,ND,ND,0,0,0,2.36,0,0,0,0,0,0,0.69,0,0,4.11,0,0,0,0,0,0,0,0,1.52,0,0,0,0.55,0,0,ND,0
Citrus Sap,10.58,0,0,121,1.34,12.02,ND,ND,ND,ND,0,0,0,0,0,0,0,0,0,0,0,0,0,1.61,0,0,0,0,0,0.63,0,0,3.78,0.92,0,0,0.6,0,0.55,ND,0
City of God,9.8,0,0,166,18,18,17,2,16.2,0,ND,ND,ND,ND,ND,ND,ND,3.38,0.09,9.32,1.28,0,0.04,1.02,0,0.22,0,0.04,0.09,0.62,0,0,2.05,1.05,0,0,0.46,0,0.71,20.37,ND
City Of God,9.27,0,0,230,25.4,25.03,ND,ND,ND,ND,0,0,0,0,0,0,0,4.12,0,15.1,1.91,0,0,1.55,0,0,0,0,0,0.52,0,0,2.74,0.97,0,0,0,0,0.67,ND,0
Conspiracy Kush,10.87,0,0,176,14.5,18.94,ND,ND,ND,ND,0,0,0,0,0,0,0,0.52,0,4.13,1.01,0,0,3.35,0,0,0,0,10.13,0,0,0,3.72,0.82,0,0,0.61,0,0,ND,0
Cookie Lemon Kush,11.03,0,0,276,1.65,27.39,ND,ND,ND,ND,0,0,0,0.97,0,0,0,0,0,2.04,0,0,0,3.42,0,0,0,0,0,2.19,0,0,8.99,3.15,0,0,0,0,1.41,ND,0
Cookies,8.25,0,0,191,4.93,18.79,ND,ND,ND,ND,0,0,0,0.86,0,0,0,0,0,1.86,0,0,0,2.95,0,0,0,0,0,1.43,0,0,5.84,2.03,0.22,0,0,0,0,ND,0
Cookies And Cream,9.35,0,0,255,11.2,25.91,ND,ND,ND,ND,0,0,0,1.09,0,0,0,0,0,1.52,0,0,0,3.33,0,0,0,0,0,1.82,0,0,5.96,2.02,0.22,0,0,0,0,ND,0
Corazon,9.7,15.8,164,0,0,0,0,0,0,14.3,ND,ND,ND,ND,ND,ND,ND,1.61,0.05,9.62,0.6,0,0.04,1,0.06,0.1,0,0.04,0.05,0.41,0,0,0.76,0.26,0,0,0.32,0,0.51,15.44,ND
Cream Royale (Peach Gum???),8.2,0,0,174,0,16.5,17,0,15.1,0,ND,ND,ND,ND,ND,ND,ND,1.38,0.07,4.63,0.58,0,0,1.37,0,0.08,0,0.02,0.03,0.27,0,0,1.51,0.61,0,0,0.38,0,0.53,11.47,ND
Critical Cheese,10.6,0,0,142,0,13.8,14,0,12.4,0,ND,ND,ND,ND,ND,ND,ND,4.64,0.22,4.24,1.47,0,0.04,1.57,0,0.15,0,0.03,0.11,0.89,0,0,0.83,0.44,0,0,0,0,0,14.62,ND
Critical Cure,11.7,9.5,96,34,0,3.3,3,0,3,8.4,ND,ND,ND,ND,ND,ND,ND,2.29,0.06,9.21,0.84,0,0.04,1.07,0.16,0,0,0.04,0.05,0.25,0,0,0.58,0.25,0,0,0.2,0,0.21,15.25,ND
Critical Cure,9.77,13.99,140,74,6.83,8.02,ND,ND,ND,ND,0.74,0,1,0.91,0,0,0,0,0,4.24,0,0,0,1.26,0,0,0,0,0,0.68,0,0,4.17,1.45,0,0,0.81,0,0.57,ND,0
Dad'S Durban Pomegranate,9.52,0.25,0,200,6.52,20.11,ND,ND,ND,ND,0,0,0,0,0,0,0,1.35,0,6.65,1.03,0,0,1.68,0,0,0,0,5.24,0,0,0,1.82,0,0,0,0.69,0,0,ND,1.07
Dawg Cookies,8.82,0,0,227,6.37,22.53,ND,ND,ND,ND,0,0,0,1.32,0,0,0,0,0,0,0,0,0,3.55,0,0,0,0,0,0.86,0,0,10.18,3.41,0,0,0,0,1.33,ND,0
Dawg's Waltz,9.4,0,0,227,0,21.8,23,0,19.7,0,ND,ND,ND,ND,ND,ND,ND,0.44,0.13,3.26,0.42,0,0.03,3.83,0,0.15,0.02,0.03,0.08,1.41,0,0,4.6,2.2,0,0,0,0,0.32,16.93,ND
Doc Trinity,13.3,0,0,174,0,17.5,17,0,15.1,0,ND,ND,ND,ND,ND,ND,ND,4.64,0.19,3.41,1.11,0,0.04,1.65,0,1.03,0.02,0.04,0.06,0.33,0,0,2.13,0.72,0,0,0,0,0.28,15.67,ND
Dogwalker OG,10.1,0,0,256,0,24.8,26,0,22.3,0,ND,ND,ND,ND,ND,ND,ND,0.96,0.32,1.87,1.16,0,0.04,5.5,0,0.17,0,0.04,0.21,1.14,0,0,3.02,1.18,0,0,0,0,0.49,16.08,ND
Dosidos,8.05,0,0,213,4.71,20.83,ND,ND,ND,ND,1.49,0,0,2,0,0,0,0,0,1.44,0,0,0,3.52,0,0,0,0,0,1.72,0,0,3.88,1.01,0.34,0,0,0,0.76,ND,0
Double D Og,9.76,0,0,218,11.2,22.43,ND,ND,ND,ND,0,0,0,0.86,0,0,0,0,0,7.94,0,0,0,2.13,0,0,0,0,0,2.47,0,0,6.84,1.88,0.2,0.32,0,0,1.4,ND,0
Double Sour D Mint,8.7,0,0,160,0,15.3,16,0,13.9,0,ND,ND,ND,ND,ND,ND,ND,2.66,0.13,2.27,0.89,0.11,0.11,1.12,0.03,0.62,0.04,0.14,1.21,0.69,0,0,1.65,0.54,0,0,0,0,0.21,12.41,ND
Dragon Snacks,11.35,8.72,88.1,41,0,4.12,ND,ND,ND,ND,0,0,0.72,0.71,0,0,0,0,0,0.97,0,0,0,1.2,0,0,0,0,0,0,0,0,2.6,0.54,0,0,0,0,0.75,ND,0
Durban Poison,11.7,0,0,240,0,23.7,24,0,20.9,0,ND,ND,ND,ND,ND,ND,ND,1.36,0.08,2.77,1.47,0.71,0.41,2,0.6,2.6,0.13,0.63,2.74,0.14,0,0,0.47,0.17,0,0,0.16,0,0,16.44,ND
Durbon Poison,11.6,0,0,155,0,15.3,16,0,13.5,0,ND,ND,ND,ND,ND,ND,ND,0.18,0.06,6.52,0.28,0,0.03,1.78,0,0,0,0.03,0,1.4,0,0,3.48,1.1,0,0,0.07,0,0.48,15.43,ND
Elvis,10,0,0,141,0,13.6,14,0,12.3,0,ND,ND,ND,ND,ND,ND,ND,0.96,0.02,4.66,0.3,0,0.04,0.64,0,4.05,0.03,0.03,0.18,0.53,0,0,3.86,1.26,0,0,1.21,0,0.14,17.91,ND
Forum Cookies X Memory Loss,8.3,0,0,225,0,21.4,23,0,19.6,0,ND,ND,ND,ND,ND,ND,ND,0.29,0.09,2.53,0.32,0,0.03,2.05,0,0.13,0,0.02,0.05,0.16,0,0,4.01,1.36,0,0,0,0,0.36,11.41,ND
Forum Gsc,8.83,0,0,157,6.99,15.87,ND,ND,ND,ND,0,0,0,0,0,0,0,0,0,1.97,0,0,0,2.21,0,0,0,0,0,0.58,0,0,3.8,1.33,0,0,0,0,0,ND,0
Frank'S Gift,9.4,12.78,127,40,4.55,4.43,ND,ND,ND,ND,0.67,0,2.99,0.97,0,0,0,3.15,0,8.06,1.1,0,0,0,0,0,0,0,0,0,0,0,1.35,0,0,0,0,0,0,ND,0
Freedom,7.69,15.01,158,105,1.4,10.13,ND,ND,ND,ND,0,0,0.95,1.28,0,0,0,0,0,7.68,0,0,0,1.57,0,0,0,0,0,1.38,0,0,1.43,0,0,0,0,0,0,ND,0
Future 11,7.67,0,0,249,2.54,23.93,ND,ND,ND,ND,0,0,0,0,0,0,0,0,0,3.41,0,0,0,3.29,0,0,0,0,0,1.73,0,0,1.91,0,0,0,0,0,0,ND,0
Gg4Og,9.68,0,0,169,18.6,18.47,ND,ND,ND,ND,0,0,0,0,0,0,0,0,0,4.54,0,0,0,3.19,0,0,0,0,0,1.03,0,0,2.61,0.65,0,0,0,0,0,ND,0
Gnome Walker,10.86,0,0,232,4.77,23.36,ND,ND,ND,ND,0,0,0,1.48,0,0,0,0,0,4.56,0.59,0,0,4.1,0,0,0,0,0,1.11,0,0,4.26,1.47,0.21,0,0,0,1.03,ND,0
Goji Dc,9.52,7.61,71.6,40,3.22,4.27,ND,ND,ND,ND,0.65,0,0,0,0,0,0,0.62,0,5.24,0,0,0,0.66,0,0,0,0,0,0,0,0,1.41,0,0,0,0,0,0,ND,0
Golden Cobra,8.4,0,0,142,0,13.5,14,0,12.4,0,ND,ND,ND,ND,ND,ND,ND,0.15,0.03,3.23,0.16,0,0,0.97,0,0.06,0,0.02,0.02,0.52,0,0,2.35,0.72,0,0,0.27,0,0.29,8.8,ND
Golden Pineapple,9.8,0,0,221,0,21.3,22,0,19.2,0,ND,ND,ND,ND,ND,ND,ND,0.97,0.08,1.88,0.98,0.4,0.31,1.18,0.12,1.25,0.08,0.38,4.58,0.25,0,0,0.96,0.32,0,0,0.31,0,0.15,14.22,ND
Golden Pineapple,11.98,0.63,0,272,5.92,27.77,ND,ND,ND,ND,0,0,0,1.62,0,0,0,0,0,3.47,0.69,0,0,1.67,0,0,0,0,10.69,0,0,0,1.64,0,0,0,0.75,0,0,ND,3.99
Gorilla Glue #4,12.7,0,0,221,0,22,22,0,19.2,0,ND,ND,ND,ND,ND,ND,ND,0.83,0.12,1.47,0.55,0,0,2.87,0,0.09,0.01,0.03,0.04,0.33,0,0,4.12,1.48,0,0,0,0,0.52,12.46,ND
Gorilla Snacks,10.02,0,0,237,4.18,23.56,ND,ND,ND,ND,0,0,0,0.83,0,0,0,0,0,2.05,0,0,0,3.77,0,0,0,0,0,0.72,0,0,5.48,1.49,0,0,0,0,0.7,ND,0
Granola Funk,9.23,0,0,217,1.31,21.11,ND,ND,ND,ND,0,0,0,0.76,0,0,0,0,0,0.91,0,0,0,1.81,0,0,0,0,0,1.39,0,0,2.75,0.85,0,0,0,0,0.91,ND,0
Grape Kush,8.5,0,0,152,0,14.4,15,0,13.2,0,ND,ND,ND,ND,ND,ND,ND,0.17,0.04,4.57,0.27,0,0.03,0.96,0,0.14,0,0.02,0.03,0.43,0,0,1.14,0.46,0,0,0,0,0.38,8.65,ND
Green C,10.73,0,0,171,8.6,17.76,ND,ND,ND,ND,0,0,0,0,0,0,0,0,0,4.13,0,0,0,1.4,0,0,0,0,0,0,0,0,2.41,0.97,0,0,0,0,0.79,ND,1.38
Green Crack,9.1,0,0,245,2.25,23.88,ND,ND,ND,ND,0,0,0,1.76,0,0,0,0,0,2.11,0,0,0,3.8,0,0,0,0,0,1.26,0,0,4.1,0.96,0,0,0,0,0.75,ND,0
Green Ribbon,11.34,0,0,248,8.24,25.46,ND,ND,ND,ND,0,0,0,1.7,0,0,0,0,0,0.95,0.57,0,0,3.52,0,0,0,0,0,1.61,0,0,2.86,0.96,0,0,0,0,0,ND,0.5
Grinspoon,10.3,0,0,144,0,14,14,0,12.5,0,ND,ND,ND,ND,ND,ND,ND,0.56,0.06,1.92,0.6,0.2,0.23,1.01,0.02,1.16,0.03,0.21,3.9,0.31,0,0,0.75,0.37,0,0,0,0,0.18,11.55,ND
GT Dragon,11.5,0,0,201,0,19.8,20,0,17.5,0,ND,ND,ND,ND,ND,ND,ND,2.39,0.26,0.54,1.11,0,0.04,4.91,0,1.11,0,0.04,0.11,0.94,0,0,1.51,0.52,0,0,0,0,0.21,13.71,ND
Guava Chem,10.7,0,0,173,0,16.8,17,0,15.1,0,ND,ND,ND,ND,ND,ND,ND,1.08,0.08,5.17,0.4,0,0.03,1.24,0,3.06,0,0.02,0.04,0.43,0,0,1.81,0.78,0,0,0,0,0.27,14.41,ND
Harletsu X Black Dog,9.68,13.6,137,45,0,4.42,ND,ND,ND,ND,0,0,16.7,0,0,0,0,1.77,0,11,0.81,0,0,1.31,0,0,0,0,0.69,0.63,0,0,1.57,0,0,0,0,0,0,ND,0
Harley Wreck,7.73,14.52,149,5,0,0.54,ND,ND,ND,ND,0,0,1.62,1.24,0,0,0,0,0,2.48,0,0,0,0,0,0,0,0,0,0,0,0,1.37,0,0,0,0,0,0.57,ND,0
Harley Wreck 2,7.66,19.76,202,9,0,0.89,ND,ND,ND,ND,0,0,3.27,1.44,0,0,0,0,0,3.26,0,0,0,0.72,0,0,0,0,0,0.58,0,0,4.12,1.08,0,0.46,0,0,0,ND,0
Harley Wreck 5,8.02,11.4,117,17,0,1.7,ND,ND,ND,ND,0,0,0,0,0,0,0,0,0,3.1,0,0,0,0.83,0,0,0,0,0,0.57,0,0,2.27,0.8,0,0,0,0,0.77,ND,0
HarleyWreck,8.4,3.8,40,79,0,7.5,8,0,6.9,3.5,ND,ND,ND,ND,ND,ND,ND,0.14,0.02,3.41,0.16,0,0.04,1.06,0.07,0.15,0.09,0.04,0.1,0.42,0,0,2.95,0.99,0,0,0.25,0,0.25,10.13,ND
Hazy Girl,10.84,0,0,242,3.67,24.22,ND,ND,ND,ND,0,0,0,1.38,0,0,0,0,0,0.81,0.59,0,0,0.92,0,0,0,0,4.93,0,0,0,3.97,1.3,0,0,0,0,0,ND,0.72
Head Band,8.49,0,0,229,6.53,22.66,ND,ND,ND,ND,0,0,0,1.03,0,0,0,0,0,3.19,0.51,0,0,3.08,0,0,0,0,0,3.87,0,0,8.06,2.14,0,0,0,0,0,ND,0
Headband,9.29,0,0,241,5.06,23.86,ND,ND,ND,ND,0,0,0,0,0,0,0,0,0,1.42,0,0,0,4.3,0,0,0,0,0,0.74,0,0,4.64,1.23,0,0,0,0,0.54,ND,0
Headdog 7,12.45,0,0,208,4.38,21.34,ND,ND,ND,ND,0,0,0,0,0,0,0,0,0,0,0,0,0,2.15,0,0,0,0,0,1.26,0,0,7.4,2.7,0.27,0,0,0,0,ND,0
Headdog 9,8,0.06,0.64,248,12.2,24.97,ND,ND,ND,ND,0,0,0,0,0,0,0,0,0,1.7,0.57,0,0,5.25,0,0,0,0,0,1.88,0,0,4.64,1.19,0.38,0,1.11,0,0,ND,0
Holy Widow,10.12,0.36,2.44,158,8.62,16.38,ND,ND,ND,ND,0,0,0,0,0,0,0,0.91,0,4.4,0.57,0,0,0.76,0,0,0,0,2.71,0,0,0,0,0,0,0,0,0,0,ND,0
Honey Bananas,12.2,0,0,203,0,20.1,20,0,17.7,0,ND,ND,ND,ND,ND,ND,ND,0.58,0.15,11.64,0.64,0,0,4.63,0,0.69,0.01,0.05,0.09,0.45,0,0,1.33,0.59,0,0,0,0,0.35,21.19,ND
Hornblower,11.1,0,0,175,0,17.1,18,0,15.2,0,ND,ND,ND,ND,ND,ND,ND,5.61,0.07,15.08,2.05,0,0,1.78,0,0.42,0,0.06,0.08,0.67,0,0,0.6,0.23,0,0,0,0,0.62,27.26,ND
Incredible Power,10.47,9.34,87.2,46,13.1,6.03,ND,ND,ND,ND,0.92,0,0,0,0,0,0,1.17,0,7.1,0,0,0,0.68,0,0,0,0,0,2.03,0,0,2.01,0,0,0,1.21,0,1.81,ND,0
Irish Cream,10.17,0,0,258,3.43,25.57,ND,ND,ND,ND,0,0,0,1.77,0,0,0,0.66,0,4.51,0.73,0,0,4.79,0,0,0,0,0,2.51,0,0,5.12,1.19,0,0,0,0,0.62,ND,0
Jack Herer,10.1,0,0,253,0,24.5,25,0,22,0,ND,ND,ND,ND,ND,ND,ND,0.79,0.04,2.91,0.64,0.35,0.28,1.67,0.19,4.27,0.05,0.37,4.65,0.44,0,0,1.7,0.76,0,0,0.31,0,0.35,19.77,ND
Jack Herer,9.3,0,0,157,0,15.1,16,0,13.7,0,ND,ND,ND,ND,ND,ND,ND,0.45,0.02,0.52,0.47,0.21,0.17,0.53,0.08,0.63,0.05,0.26,2.56,0.19,0,0,1.27,0.51,0,0,0,0,0.12,8.02,ND
Jack Herer,9.58,0.3,0,210,3.63,20.77,ND,ND,ND,ND,0,0,0,0.77,0,0,0,0,0,1.73,0.65,0,0,1.04,0,0,0,0,6.43,0,0,0,2.96,1.06,0,0,0.67,0,0,ND,1.13
Jack Herer Hidden Elephant Cut,9.68,0,0,285,15.1,29.34,ND,ND,ND,ND,0,0,0,1.56,0,0,0,0,0,3.72,0.74,0,0,1.52,0,0,0,0,9.51,0.58,0,0,1.71,0.55,0,0,0,0,0,ND,3.46
Jack's Dream,9.5,0,0,197,0,18.9,20,0,17.1,0,ND,ND,ND,ND,ND,ND,ND,2.54,0,13.94,0.95,0,0.06,0.72,0,0,0,0.05,0.04,0.49,0,0,2.1,0.64,0,0,0,0,0.56,22.09,ND
Jack's Grapes,12.2,0.18,0,188,3.63,19.19,ND,ND,ND,ND,0,0,0,0,0,0,0,1.25,0,5.15,0.74,0,0,0.59,0,0,0,0,3.04,0,0,0,1.24,0,0,0,0,0,0.69,ND,0.68
Jaeger Kush,11.6,0,0,184,0,18.1,18,0,16,0,ND,ND,ND,ND,ND,ND,ND,1.34,0.23,1.27,0.85,0,0.03,5.57,0,0.32,0,0.03,0.11,0.95,0,0,3.43,1.24,0,0,0.19,0,0.34,15.89,ND
Jaeger OG,9.5,0,0,215,0,20.7,22,0,18.7,0,ND,ND,ND,ND,ND,ND,ND,1.4,0.21,1.24,0.92,0,0.04,5.1,0,0,0,0.04,0.11,0.95,0,0,4.61,1.55,0,0,0,0,0.24,16.42,ND
Jager,9.39,0,0,202,9.46,20.6,ND,ND,ND,ND,0,0,0,0.98,0,0,0,0.83,0,0,0.87,0,0,5.22,0,0,0,0,0,1.61,0,0,3.07,0.69,0,0,0,0,0,ND,0
Jager,10.39,0,0,146,30.7,17.72,ND,ND,ND,ND,0.71,0,0,0,0,0,0,0,0,1.84,0,0,0,3.43,0,0,0,0,0,2.48,0,0,14.25,6.29,0,0,0,0,0,ND,0
Jager Og,10.26,0,0,184,18.1,20,ND,ND,ND,ND,0,0,0,0,0,0,0,0,0,2.64,0,0,0,4.71,0,0,0,0,0,0.95,0,0,3.54,0.9,0,0,0.9,0,0,ND,0
Jazz,12.66,0,0,217,14.9,23.5,ND,ND,ND,ND,0,0,0,0,0,0,0,0,0,4.69,0.73,0,0,1.89,0,0,0,0,14.1,0,0,0,3.53,0.87,0,0,1.34,0,0,ND,0
Key Lime Cake,9.8,0,0,125,0,12,13,0,10.9,0,ND,ND,ND,ND,ND,ND,ND,0.87,0.06,3.14,0.43,0,0.03,0.62,0,0.17,0,0.02,0.07,0.41,0,0,1.49,0.68,0,0,0,0,0.18,8.17,ND
Kings Pure Kush,11.46,0,0,196,0,19.41,ND,ND,ND,ND,0,0,0,0,0,0,0,0,0,0.72,0.62,0,0,4.36,0,0,0,0,0,1.81,0,0,1.37,0,0,0,0,0,0,ND,0
Kush Cleaner,8.79,0,0,75,5.72,7.86,ND,ND,ND,ND,0,0,0,0.64,0,0,0,0,0,0,0,0,0,1.45,0,0,0,0,0,1.25,0,0,2.18,0.55,0,0,0,0,0.6,ND,0
Kush Med,11.4,0,0,216,0,21.2,22,0,18.8,0,ND,ND,ND,ND,ND,ND,ND,1.86,0.03,7.02,0.76,0,0.04,0.98,0,0.12,0.03,0.05,0.06,0.72,0,0,1.87,0.79,0,0,0.41,0,0.46,15.2,ND
La Qrippler,9.45,0,0,294,4.97,29.02,ND,ND,ND,ND,0,0,0,1.89,0,0,0,2.93,0,12.06,0.72,0,0,0,0,0,0,0,0,1.82,0,0,0.97,0,0,0,0,0,0,ND,1.88
Lambs In Space,10.86,0,0,159,0,15.64,ND,ND,ND,ND,0,0,0,0.75,0,0,0,2.84,0,4.31,1.45,0,0,2.02,0,0,0,0,0,0,0,0,6.86,1.66,0,0,0,0,0,ND,0
Lemon Drop,11.8,0,0,189,0,18.6,19,0,16.4,0,ND,ND,ND,ND,ND,ND,ND,3.15,0.12,8.36,1.47,0,0,2.89,0,0.38,0.05,0.06,0.06,0.56,0,0,3.1,1.32,0,0,0,0,0.42,21.95,ND
Lemon Kush X Mountain Girl,13.9,0,0,235,0,23.7,24,0,20.4,0,ND,ND,ND,ND,ND,ND,ND,2.81,0.08,13.4,1.08,0,0,1.89,0,0.46,0,0.04,0.07,0.35,0,0,3.24,1.04,0,0,0,0,0.45,24.91,ND
Lemon Peel,8.33,0,0,200,1.66,19.32,ND,ND,ND,ND,0,0,0,0,0,0,0,0,0,1.84,0.71,0,0,4.25,0,0,0,0,0,0.95,0,0,2.56,0.8,0,0,0.6,0,0.52,ND,0
Lite Me Up,10.15,13.41,131,73,1.24,7.3,ND,ND,ND,ND,0,0,0.89,1.29,0,0,0,0,0,1.05,0,0,0,1.12,0,0,0,0,5.76,0,0,0,3.36,0.88,0,0,0,0,0,ND,1.35
Llama Kush,12.2,11.8,119,0,0,0,0,0,0,10.4,ND,ND,ND,ND,ND,ND,ND,1.2,0.03,5.68,0.43,0,0.03,0.62,0.19,0.32,0.02,0.03,0.04,0.09,0,0,1.2,0.41,0,0,0.19,0,0.43,10.88,ND
Llamas Bread,8.58,0,0,173,0.86,16.69,ND,ND,ND,ND,0,0,0,0,0,0,0,0,0,0.95,0,0,0,1.98,0,0,0,0,0,0.73,0,0,2.83,0.63,0.25,0,0,0,0.64,ND,0
Magellan,9.99,0,0,311,3.46,30.69,ND,ND,ND,ND,0,0,0,3.42,0,0,0,0,0,6.51,0,0,0,4.01,0,0,0,0,0,0,0,0,4.41,1.14,0,0,0,0,0,ND,0
Marion Berry,8.82,0,0,121,20.4,13.88,ND,ND,ND,ND,0.69,0,0,0.66,0,0,0,0,0,2.65,0,0,0,0,0,0,0,0,0,0,0,0,4.33,1.04,0,0,0.65,0,0,ND,0
Kush,6.29,0,0,190,10.5,18.9,ND,ND,ND,ND,0,0,0,1.52,0,0,0,0,0,2.76,0.78,0,0,3.24,0,0,0,0,8.59,0.72,0,0,5.98,1.42,0,0.43,0.99,0,0,ND,0
Master Kush,9.7,0,0,142,0,13.7,14,0,12.4,0,ND,ND,ND,ND,ND,ND,ND,0.39,0.13,0.54,0.5,0,0.03,2.38,0,0.14,0,0.03,0.08,0.88,0,0,1.61,0.55,0.11,0,0,0,0.46,7.82,ND
Medi Perpetual Haze,7.48,10.73,111,57,2.12,5.7,ND,ND,ND,ND,0,0,0.65,0,0,0,0,0,0,7.67,0,0,0,0,0,0,0,0,0,0,0,0,0,0,0,0,0,0,0,ND,1.15
Mendo Betty,11.22,0,0,159,5.9,16.37,ND,ND,ND,ND,0.82,0,0,0.86,0,0,0,1.13,0,6.79,0.56,0,0,0.88,0,0,0,0,0,0,0,0,3.34,0.72,0,0,0.54,0,1.17,ND,0
Mighty Quinn,7.7,0,0,187,22,20,19,2,18.5,0,ND,ND,ND,ND,ND,ND,ND,2.55,0.12,4.98,0.61,0,0.03,0.75,0,0.1,0,0.03,0.08,0.31,0,0,2.67,1.35,0,0,0,0,0.27,13.83,ND
Mighty Quinn,8.25,9.16,92.4,124,9.24,12.86,ND,ND,ND,ND,0.66,0,0,0.63,0,0,0,2.19,0,6.96,0.92,0,0,0.94,0,0,0,0,0,0.75,0,0,4.25,1.2,0,0.34,0,0,0,ND,0
Mindful Kush,13.5,0,0,166,0,16.7,17,0,14.4,0,ND,ND,ND,ND,ND,ND,ND,0.46,0.13,8.98,0.69,0,0,4.79,0,0.12,0,0.04,0,2.08,0,0,5.32,2.31,0,0,0,0,1.2,26.12,ND
Monkey Train,8.58,0.08,0,242,7.16,24,ND,ND,ND,ND,0,0,0,0.99,0,0,0,0,0,7.8,0,0,0,0.59,0,0,0,0,0,1.87,0,0,6.95,1.71,0,0.6,1.1,0,2.19,ND,0
Montana Silvertip,9.4,0,0,210,0,20.2,21,0,18.3,0,ND,ND,ND,ND,ND,ND,ND,2.46,0.12,5.56,0.63,0,0.03,1.11,0,0.85,0,0.03,0.05,0.53,0,0,1.51,0.51,0,0,0,0,0.14,13.52,ND
Moon Puppies,9.1,0,0,291,0,27.9,29,0,25.3,0,ND,ND,ND,ND,ND,ND,ND,1.31,0.18,1.54,0.5,0.43,0.54,1.5,0.26,0.99,0.09,0.48,4.89,0.14,0,0,1.02,0.41,0,0,0,0,0.16,14.42,ND
Morning Star,9.79,0,0,231,5.68,23.09,ND,ND,ND,ND,0,0,0,0.85,0,0,0,0,0,4.89,0,0,0,1.14,0,0,0,0,0,0,0,0,5.65,1.59,0,0,0.87,0,0.69,ND,0
Mountain Girl,9.54,0,0,146,0,14.16,ND,ND,ND,ND,0,0,0,0.86,0,0,0,0,0,4.85,0,0,0,0.69,0,0,0,0,0,0,0,0,7.88,1.92,0,0,0,0,0.8,ND,0
Mountain Girl Lemon,10.38,0.09,0,171,2.31,16.99,ND,ND,ND,ND,0,0,0,0.78,0,0,0,3.13,0,11.17,1.56,0,0,1.66,0,0,0,0,0,0,0,0,3.19,0.7,0,0,0,0,0,ND,0
Mystery Machine,9.7,0,0,191,0,18.4,19,0,16.6,0,ND,ND,ND,ND,ND,ND,ND,0.61,0.21,2.56,0.86,0,0.03,5.05,0,0.15,0,0.03,0.13,1.06,0,0,3.13,1.35,0,0,0,0,0.23,15.39,ND
Mystic,8.6,0,0,135,7.48,13.77,ND,ND,ND,ND,0,0,0,0.84,0,0,0,0,0,1.99,0,0,0,1.5,0,0,0,0,6.68,0,0,0,1.58,0,0,0,0,0,0,ND,3.54
Nepalese Kush,8.84,0,0,296,3.32,28.84,ND,ND,ND,ND,0,0,0,0,0,0,0,0,0,5.11,0.58,0,0,3.73,0,0,0,0,0,0,0,0,3.2,1.02,0,0,0.73,0,0.7,ND,0
Obama Kush,8.28,0,0,222,14.1,22.76,ND,ND,ND,ND,0,0,0,0,0,0,0,0.93,0,0,0.97,0,0,6.64,0,0,0,0,0,1.37,0,0,10.49,2.54,0.26,0,0,0,1.02,ND,0
Og 18,10.55,0,0,252,17.9,26.71,ND,ND,ND,ND,0,0,0,1.44,0,0,0,0,0,7.42,0.67,0,0,4.58,0,0,0,0,0,2.61,0,0,1.11,0,0,0,0,0,0,ND,0
Og Banana Berry,8.5,0.13,0,155,10.3,15.98,ND,ND,ND,ND,0,0,0,0,0,0,0,0,0,1.96,0,0,0,0.91,0,0,0,0,3.1,0,0,0,1.36,0,0,0,0,0,0,ND,0.65
Og Pie Breath,11.03,0,0,218,11.7,22.8,ND,ND,ND,ND,0,0,0,1.36,0,0,0,1.73,0,24.47,0,0,0,1.74,0,0,0,0,0,1.78,0,0,4.29,1.98,0,0,0,0,0,ND,1.78
OG-78,14.6,13.3,131,72,0,7.3,7,0,6.3,11.4,ND,ND,ND,ND,ND,ND,ND,4.67,0.14,10.48,1.3,0,0.05,1.38,0.14,0,0,0.04,0.06,0.38,0,0,2,0.74,0,0,0.36,0,0.45,22.2,ND
Ogre,9.14,0,0,247,11.2,25.07,ND,ND,ND,ND,0,0,0,1.04,0,0,0,0,0,7.55,0,0,0,1.07,0,0,0,0,0,0.64,0,0,4.09,1,0,0,0.58,0,0,ND,0
Orange Cookies,9.32,0.23,0,198,1.05,19.26,ND,ND,ND,ND,0,0,0,1.06,0,0,0,0,0,1.55,0,0,0,0.6,0,0,0,0,2.9,0,0,0,1.89,0.54,0,0,0,0,0,ND,0
Oregon Huckleberry,12.14,0,0,192,10.6,20.37,ND,ND,ND,ND,0,0,0,0,0,0,0,2.09,0,5.98,1.24,0,0,2.65,0,0,0,0,0,0.54,0,0,2.06,0,0,0,0,0,0,ND,0
P.A.G.S. (Name TBD),10.5,0,0,197,0,19.1,20,0,17.1,0,ND,ND,ND,ND,ND,ND,ND,2.65,0.11,6.53,0.95,0,0.04,1.19,0,0,0,0.04,0.15,0.45,0,0,1.71,0.61,0,0,0.34,0,0.23,15.02,ND
Papaya,9.3,6.2,65,124,0,11.9,12,0,10.8,5.7,ND,ND,ND,ND,ND,ND,ND,0.96,0.13,3.75,0.39,0,0,3.03,0.05,0.89,0.06,0.04,0.06,0.52,0,0,0.86,0.32,0,0,0,0,0.2,11.26,ND
Peach Kush,9.3,0,0,200,24,21.8,20,2,19.8,0,ND,ND,ND,ND,ND,ND,ND,1.28,0.22,0.66,0.62,0,0,5.28,0,0.51,0.01,0.04,0.13,1.08,0,0,3.18,1.48,0,0,0.43,0,0.31,15.22,ND
Peanut Butter Breath,10.64,0,0,259,4.43,25.92,ND,ND,ND,ND,0,0,0,0.91,0,0,0,0,0,0.89,0,0,0,2.14,0,0,0,0,0,1.86,0,0,6.34,2.14,0.36,0,0,0,1.4,ND,0
Phyre Glue,10.27,0,0,228,14.2,23.87,ND,ND,ND,ND,0,0,0,0.76,0,0,0,0,0,2.53,0,0,0,3.52,0,0,0,0,0,0.91,0,0,9.49,2.69,0.72,0,0,0,0.87,ND,0
Pineapple,9,0,0,183,0,17.5,18,0,15.9,0,ND,ND,ND,ND,ND,ND,ND,1.39,0,9.75,0.42,0,0.04,0.34,0,2.41,0.03,0.04,0.05,0.37,0,0,3.36,1.36,0,0,0,0,0.3,19.85,ND
Pineapple Express,13.7,0,0,211,0,21.3,21,0,18.4,0,ND,ND,ND,ND,ND,ND,ND,2.66,0.09,4.69,1.1,0,0.03,0.83,0,0.06,0.01,0.03,0.04,0.32,0,0.39,1.95,0.82,0,0,0,0,0.17,13.18,ND
Pineapple Gold,10.66,0,0,147,15.3,16.14,ND,ND,ND,ND,0.83,0,0,1.19,0,0,0,0,0,0.91,0,0,0,1.75,0,0,0,0,4,0.78,0,0,4.48,1.54,0,0,0,0,0.86,ND,2.35
Pineapple Jager,9.23,13.86,138,57,6.34,6.26,ND,ND,ND,ND,0.7,0,1.08,0,0,0,0,2.08,0,8.74,0.94,0,0,2.37,0,0,0,0,0,0.53,0,0,2.33,0.78,0,0,0.64,0,0,ND,0
Pit Bull,9.17,0,0,138,16.3,15.12,ND,ND,ND,ND,0.92,0,0,0,0,0,0,0,0,3.74,0,0,0,1.44,0,0,0,0,0,0,0,0,3.36,0.77,0,0,0,0,0,ND,0
Pkt,8.77,0,0,132,18.5,14.72,ND,ND,ND,ND,0.8,0,0,1.25,0,0,0,0.6,0,2.13,0.67,0,0,2.1,0,0,0,0,6.73,0,0,0,2.82,0.59,0,0,0,0,0,ND,3.63
Platinum Animal Cookies,10.54,0,0,211,3.84,21.11,ND,ND,ND,ND,0,0,0,0.87,0,0,0,0,0,0.77,0,0,0,2.59,0,0,0,0,0,1.55,0,0,5.62,1.95,0,0,0,0,0,ND,0
Portland Punch,9.42,0,0,204,1.18,19.88,ND,ND,ND,ND,0,0,0,1.97,0,0,0,0,0,6.03,0,0,0,0.93,0,0,0,0,0,0.66,0,0,2.7,0.63,0,0,0.63,0,0,ND,0
Purple Hindu Kush,9.4,0,0,229,0,22,23,0,19.9,0,ND,ND,ND,ND,ND,ND,ND,2.33,0.28,0.85,1.43,0,0,6.93,0,0.21,0,0.05,0.14,1.73,0,0,2.19,0.74,0,0,0,0,0.41,17.29,ND
Purple Hindu Kush,9.3,0,0,214,0,20.5,21,0,18.6,0,ND,ND,ND,ND,ND,ND,ND,2.09,0.22,0.69,1.11,0,0,6.18,0,0.31,0,0.05,0.13,1.32,0,0,2.53,0.87,0,0,0,0,0.46,15.98,ND
Purple Hindu Kush,0,0,0,198,7.38,18.1,ND,ND,ND,ND,0,0,0,1.1,0,0,0,1.26,0,0.52,1.17,0,0,5.81,0,0,0,0,0,1.52,0,0,2.19,0,0,0,0,0,0,ND,0
Purple Wildfire,12,0,0,108,0,10.7,11,0,9.4,0,ND,ND,ND,ND,ND,ND,ND,4.1,0.12,0.35,2.12,0.23,0.13,1.51,0.09,0.47,0.03,0.21,1.44,0.15,0,0,1.33,0.61,0,0,0,0,0.31,13.2,ND
Purple Wildfire,9.78,0,0,126,8.67,13.21,ND,ND,ND,ND,0,0,0,0,0,0,0,2.98,0,0,1.71,0,0,1.97,0,0,0,0,8.17,0,0,0,0.94,0,0,0,0,0,0,ND,0.58
Quantum Kush,9.1,0,0,203,0,19.4,20,0,17.7,0,ND,ND,ND,ND,ND,ND,ND,0.99,0.19,0.76,0.58,0,0,4.03,0,1.66,0.02,0.04,0.08,0.64,0,0,2.25,0.78,0,0,0,0,0.17,12.19,ND
Quantum Kush,8.5,0,0,212,0,20.2,21,0,18.4,0,ND,ND,ND,ND,ND,ND,ND,1.67,0.24,2.49,0.86,0,0,4.64,0,1.23,0,0.04,0.07,0.2,0,0,3.39,1.46,0,0,0,0,0,16.29,ND
Quantum Kush 5,9.31,0,0,210,8.95,21.3,ND,ND,ND,ND,0,0,0,0.97,0,0,0,0.87,0,0.98,0.93,0,0,5.71,0,0,0,0,0,1.14,0,0,4.8,1.22,0,0,0,0,0,ND,2.08
Race Fuel,8.6,0,0,252,0,24,25,0,21.9,0,ND,ND,ND,ND,ND,ND,ND,0.47,0.15,5.24,0.46,0,0,3.88,0,0.07,0,0.02,0.06,0.44,0,0,3.41,1.2,0,0,0,0,0.51,15.92,ND
Razzberry Lemonade,11.12,0,0,169,3.03,17.02,ND,ND,ND,ND,0,0,0,1.38,0,0,0,1.48,0,8.51,0,0,0,0,0,0,0,0,0,1.5,0,0,2.3,0,0,0,0,0,0,ND,1.81
Rogue Blue Cheese,10.8,0,0,154,0,15,15,0,13.4,0,ND,ND,ND,ND,ND,ND,ND,2.88,0.07,5.42,1.08,0,0.03,0.58,0,0.99,0.03,0.03,0.03,0.28,0,0,0.95,0.32,0,0,0.35,0,0.38,13.43,ND
Romulan Grapefruit,8.6,0,0,160,0,15.2,16,0,13.9,0,ND,ND,ND,ND,ND,ND,ND,1.8,0.02,7.51,0.6,0,0.04,0.73,0,0.12,0,0.03,0.05,0.3,0,0,0.31,0.17,0,0,0,0,0,11.67,ND
Royal Chem,8.7,0,0,198,0,18.9,20,0,17.2,0,ND,ND,ND,ND,ND,ND,ND,0.5,0.08,0.18,0.23,0,0,1.56,0,0.24,0.01,0.03,0.05,0.27,0,0,3.51,0.96,0,0,0,0,0.12,7.76,ND
Samoas,9.56,0,0,233,11.1,23.82,ND,ND,ND,ND,0,0,0,0,0,0,0,0,0,1.55,0.55,0,0,3.83,0,0,0,0,0,1.89,0,0,4.3,1.06,0.24,0,0,0,1.27,ND,0
San Fernando Valley Og,12.89,0,0,228,2.75,23.27,ND,ND,ND,ND,0,0,0,0.96,0,0,0,0,0,5,0,0,0,2.99,0,0,0,0,0,0.65,0,0,5.12,1.39,0,0,0,0,0,ND,0
Sanfernando Valley Og,10.19,0,0,249,2.8,24.63,ND,ND,ND,ND,0,0,0,1.06,0,0,0,0,0,4.61,0,0,0,3.13,0,0,0,0,0,0.68,0,0,4.62,1.26,0,0,0,0,0,ND,0
Sci Fi,9.2,0,0,108,0,10.3,11,0,9.4,0,ND,ND,ND,ND,ND,ND,ND,0.24,0.04,1.32,0.27,0.04,0.06,0.7,0,0.32,0.01,0.07,0.71,0.19,0,0,2.24,0.74,0,0,0,0,0.22,7.17,ND
Shaolin Kush #2,12.7,0,0,258,0,25.7,26,0,22.4,0,ND,ND,ND,ND,ND,ND,ND,0.31,0.03,15.29,0.45,0,0,3.2,0,0.17,0,0.04,0.07,1.56,0,0,3.42,1.36,0,0,0.52,0,0.83,27.25,ND
Shark Shock,10.2,7.7,79,49,0,4.7,5,0,4.3,6.9,ND,ND,ND,ND,ND,ND,ND,3.11,0.1,3,0.91,0,0.03,0.53,0.07,0,0.01,0.03,0.11,0.09,0.37,0,0.59,0.2,0,0,0.22,0,0.2,9.59,ND
Silver Hawk,11.7,0,0,218,0,21.5,22,0,19,0,ND,ND,ND,ND,ND,ND,ND,0.79,0.08,2.3,0.43,0.31,0.3,1.23,0.26,1.24,0.08,0.34,3.25,0.22,0,0,0.89,0.4,0,0,0,0,0.14,12.26,ND
Silvertip,8.3,0,0,186,1.27,17.93,ND,ND,ND,ND,0,0,0,1.18,0,0,0,1.64,0,5.06,0,0,0,0.77,0,0,0,0,0,0.6,0,0,1.44,0,0,0,0,0,0,ND,0.57
Sirius Black,9.84,0,0,149,2.37,14.76,ND,ND,ND,ND,0,0,0,0.7,0,0,0,0,0,6.11,0,0,0,3.01,0,0,0,0,0,0.62,0,0,1.46,0,0,0,0,0,0.58,ND,0.87
Sizzleberry,8.97,0,0,196,3.13,19.23,ND,ND,ND,ND,0,0,0,0,0,0,0,0,0,3.07,0,0,0,1.63,0,0,0,0,0,0,0,0,2.09,0,0,0,0,0,0,ND,0
Smarties,8.45,0,0,226,2.6,21.93,ND,ND,ND,ND,0,0,0,1.49,0,0,0,0.6,0,0.83,0.67,0,0,2.93,0,0,0,0,0,1.58,0,0,3.16,0.87,0,0,0,0,0,ND,0
Snow Leopard,8.56,0.07,0,310,3.55,30.12,ND,ND,ND,ND,0,0,0,1.47,0,0,0,0,0,9.13,0,0,0,1,0,0,0,0,0,0.62,0,0,3.07,0.78,0,0,0.76,0,0,ND,0.48
Sour Amnesia,13.2,0,0,222,0,22.2,22,0,19.3,0,ND,ND,ND,ND,ND,ND,ND,0.84,0.08,2.03,0.42,0.29,0.3,1.05,0.21,3.03,0.06,0.33,3.91,0.28,0,0,1.42,0.58,0,0,0,0,0.19,15.01,ND
Sour Apple,14.9,0,0,218,0,22.3,22,0,19,0,ND,ND,ND,ND,ND,ND,ND,0.83,0.03,4.41,0.78,0.42,0.24,1.32,0.28,1.86,0.09,0.41,2.94,0.32,0,0,0.75,0.34,0,0,0.22,0,0.32,15.59,ND
Sour Apple,10.47,0,0,212,13.9,22.32,ND,ND,ND,ND,0.83,0,0,0.89,0,0,0,0,0,4.01,0.69,0,0,1.41,0,0,0,0,9.27,0,0,0,1.25,0,0,0,0,0,0,ND,1.72
Sour Banana Sherbert,8.92,0,0,237,3.05,23.16,ND,ND,ND,ND,0,0,0,1.71,0,0,0,0,0,2.66,0,0,0,1.98,0,0,0,0,0,1.07,0,0,4.68,1.16,0.3,0,0,0,1.03,ND,0
Sour Banana Sherbert,12.94,0,0,266,1.65,26.98,ND,ND,ND,ND,0,0,0,2.18,0,0,0,0,0,6.56,0,0,0,1.56,0,0,0,0,0,1.41,0,0,2.99,0.88,0,0,0,0,0,ND,0
Sour Tangie,10.1,0,0,263,0,25.4,26,0,22.9,0,ND,ND,ND,ND,ND,ND,ND,2.26,0.17,5.68,0.62,0.03,0.03,1.3,0,0.07,0,0.02,0.06,1.02,0.11,0.16,0.63,0.29,0.14,0.1,0.08,0.07,0.12,12.94,ND
Sour Tangie,8.91,0.07,0.74,304,5.47,29.87,ND,ND,ND,ND,0,0,0,0,0,0,0,0,0,3.77,0.68,0,0,4.95,0,0,0,0,0,2.28,0,0,3.37,0.94,0,0,0.95,0,0.94,ND,0
Sour Tsunami,9.85,11.71,109,5,0,0.51,ND,ND,ND,ND,0.97,0,1.01,0,0,0,0,0.74,0,5.09,0,0,0,0,0,0,0,0,3.14,0,0,0,1.63,0,0,0,0,0,0,ND,1.14
Starman,8.68,5.59,58.2,126,0.77,12.18,ND,ND,ND,ND,0,0,0,0.91,0,0,0,0.74,0,5.55,0,0,0,1.61,0,0,0,0,0,0.54,0,0,7.05,2.08,0,0,0,0,0,ND,0
Steven Hawking,10.5,0,0,194,0,18.9,19,0,16.9,0,ND,ND,ND,ND,ND,ND,ND,0.2,0.06,6.45,0.31,0,0.04,1.46,0,0,0,0.04,0.05,0.27,0,0,2.5,0.98,0,0,0.45,0,0.52,13.33,ND
Strawberry Fields,10.93,0.36,0,185,2.98,18.55,ND,ND,ND,ND,0,0,0,1.09,0,0,0,0,0,1.76,0.53,0,0,1.8,0,0,0,0,4.29,0,0,0,3.66,0.86,0,0,0,0,0,ND,0
Sugar Black Rose,17,0,0,161,0,16.9,16,0,14,0,ND,ND,ND,ND,ND,ND,ND,0.3,0.08,9.73,0.43,0,0.05,2.68,0,0.23,0.07,0.05,0.08,0.99,0,0,3.77,1.15,0,0,0,0,0.44,20.04,ND
Sugar Plum,8.32,0,0,117,7.26,11.98,ND,ND,ND,ND,0,0,0,0.88,0,0,0,0,0,0,0,0,0,0.78,0,0,0,0,0,0.54,0,0,4.84,1.68,0,0,0,0,0,ND,1.43
Sugarloaf,8.69,11.92,122,36,0,3.49,ND,ND,ND,ND,0,0,1.47,0,0,0,0,0,0,2.98,0,0,0,0.57,0,0,0,0,0,0.56,0,0,4.45,1.2,0,0.38,0,0,1.02,ND,0
Sunset Sherbert,9.68,0,0,204,1.24,19.95,ND,ND,ND,ND,0,0,0,1.21,0,0,0,0,0,0.75,0,0,0,1.82,0,0,0,0,0,0.84,0,0,3.81,1.47,0,0,0,0,0,ND,0
Sunset Sherbert,10.77,0,0,237,1.57,23.47,ND,ND,ND,ND,0,0,0,1.36,0,0,0,0,0,0.92,0,0,0,1.94,0,0,0,0,0,0.91,0,0,4.45,1.74,0,0,0,0,0,ND,0
Super Gold,12.9,0,0,142,0,14.2,14,0,12.4,0,ND,ND,ND,ND,ND,ND,ND,0.48,0.03,0.55,0.45,0.16,0.11,0.75,0.08,0.47,0.02,0.18,0.49,0.13,0,0,0.87,0.37,0,0,0,0,0.16,5.3,ND
Super Silver Blue Mango,9.54,0,0,146,0.95,14.26,ND,ND,ND,ND,0,0,0,0.98,0,0,0,0,0,4.11,0,0,0,1.77,0,0,0,0,0,2.19,0,0,0,0,0,0,0,0,0,ND,0
Superstitious,7.9,0,0,166,4.59,16.3,ND,ND,ND,ND,0,0,0,0,0,0,0,0,0,2.32,0.82,0,0,2.2,0,0,0,0,7.09,0,0,0,0,0,0,0,0,0,0,ND,0.71
Suzy Q,8.96,11.22,115,5,0,0.55,ND,ND,ND,ND,0,0,3.79,0,0,0,0,1.45,0,4.47,0.54,0,0,0,0,0,0,0,0,0,0,0,2.11,0.83,0,0,0,0,0,ND,0
Sweeties,9.84,0,0,198,3.11,19.6,ND,ND,ND,ND,0,0,0,0,0,0,0,0,0,2.01,0.71,0,0,4.84,0,0,0,0,0,4.95,0,0,4.39,1.55,0,0.34,0,0,0.63,ND,0
Swiss Tsu,9.9,10.1,105,0,0,0,0,0,0,9.1,ND,ND,ND,ND,ND,ND,ND,1.36,0.03,3.59,0.46,0.09,0.12,0.33,0.3,0.75,0.01,0.12,1.66,0.19,0,0,0.5,0.25,0,0,0.15,0,0.12,10.02,ND
Tahoe Dream,9.63,0,0,190,6.96,19.21,ND,ND,ND,ND,0,0,0,1.23,0,0,0,5.21,0,5.24,2.66,0,0,2,0,0,0,0,0,0.58,0,0,2.04,0,0,0,0,0,0,ND,0
Tangelo Haze,10.62,0,0,212,4.54,21.31,ND,ND,ND,ND,0,0,0,0,0,0,0,0,0,2.02,0.54,0,0,4.46,0,0,0,0,0,2.37,0,0,8.62,2.24,0,0,1.23,0,0.75,ND,0
Tangie Cure,10.87,13.51,136,88,0,8.69,ND,ND,ND,ND,0,0,0.83,1.43,0,0,0,1.45,0,4.88,0.63,0,0,0,0,0,0,0,0,0.88,0,0,1.62,0.54,0,0,0.53,0,0,ND,0
Telenovela,10.15,7.18,73.6,36,0,3.56,ND,ND,ND,ND,0,0,0,0.72,0,0,0,1.3,0,5.58,0.61,0,0,0.6,0,0,0,0,0,0,0,0,2.42,0.75,0,0,0,0,0,ND,0
The Real McCoy,10.5,0,0,231,0,22.5,23,0,20.1,0,ND,ND,ND,ND,ND,ND,ND,1.86,0.05,9.01,0.44,0,0.04,0.54,0,0.9,0,0.04,0.07,0.34,0,0,1.2,0.36,0,0,0,0,0.15,15,ND
Thin Mint Gsc,9.33,0,0,189,6.92,19.04,ND,ND,ND,ND,0,0,0,0.75,0,0,0,0,0,1.06,0,0,0,2.41,0,0,0,0,0,0.73,0,0,9.45,3.22,0,0,0,0,0.53,ND,0
TJ'S Matanuska Thunder Fuck,7.27,0,0,218,5.97,21.26,ND,ND,ND,ND,0,0,0,0.77,0,0,0,0,0,11.12,0,0,0,2.15,0,0,0,0,0,1.77,0,0,0.89,0,0,0,0,0,0,ND,0
TJ'S Monkey Tape,8.17,0,0,244,8.47,24.22,ND,ND,ND,ND,0,0,0,0.97,0,0,0,0,0,2.04,0,0,0,4.24,0,0,0,0,0,1.55,0,0,7.74,2.16,0.58,0,0,0,0.68,ND,0
TJ'S Platinum Gsc,8.09,0,0,166,6.91,16.59,ND,ND,ND,ND,0,0,0,0.67,0,0,0,0,0,0.78,0,0,0,2.4,0,0,0,0,0,2.66,0,0,6.41,2.35,0.21,0,0,0,0,ND,0
TJ'S Rude Boi,9.73,0,0,228,2.79,22.46,ND,ND,ND,ND,0,0,0,1.3,0,0,0,0,0,3.13,0.52,0,0,4.38,0,0,0,0,0,4.91,0,0,5.77,1.59,0.53,0.35,0,0,1.04,ND,0
TJ'S White Tahoe Cookies,9.32,0,0,226,2.45,22.13,ND,ND,ND,ND,0,0,0,0.83,0,0,0,0,0,1.34,0,0,0,2.85,0,0,0,0,0,3.63,0,0,6.08,2.2,0.24,0,0,0,0.59,ND,0
Trainwreck,9.76,0,0,173,6.94,17.58,ND,ND,ND,ND,0,0,0,0,0,0,0,1.23,0,5.51,0,0,0,0.64,0,0,0,0,0,0,0,0,1.16,0,0,0,0,0,0,ND,0.57
Twisted Siskiyou,7.89,6.41,67.3,48,0,4.57,ND,ND,ND,ND,0,0,0,0.75,0,0,0,0,0,2.1,0,0,0,0,0,0,0,0,0,0,0,0,3,0.72,0,0,0,0,0.75,ND,0
U Dub,10.1,0,0,159,0,15.4,16,0,13.8,0,ND,ND,ND,ND,ND,ND,ND,1.32,0.28,0.54,0.82,0,0.04,5.23,0,0.39,0.01,0.04,0.13,1.24,0,0,3.41,1.09,0,0,0,0,0.27,14.81,ND
Violet Delight,10.06,0,0,191,4.87,19.17,ND,ND,ND,ND,0,0,0,1.77,0,0,0,0.6,0,6.76,0,0,0,0.8,0,0,0,0,0,0,0,0,2.35,0,0,0,0,0,0,ND,0
Voyager 1,7.02,0.06,0.66,323,11.1,31.66,ND,ND,ND,ND,0,0,0,1.08,0,0,0,0.77,0,2.42,1.26,0,0,1.89,0,0,0,0,6.85,0.97,0,0,0.85,0,0,0,0,0,0,ND,0.84
Wedding Cake,9.2,0,0,131,0,12.6,13,0,11.4,0,ND,ND,ND,ND,ND,ND,ND,0.14,0.06,0.94,0.13,0,0,0.98,0,0.11,0.01,0.03,0.08,0.64,0,0,1.83,0.75,0,0,0,0,0.15,5.84,ND
Wedding Cake,11.1,0,0,187,34,22.1,19,3,19.7,0,ND,ND,ND,ND,ND,ND,ND,5.4,0,19.58,0.98,0,0.07,0.9,0,1.97,0,0.06,0.05,1.1,0,0,4.53,1.51,0,0,0,0,1.02,37.18,ND
Wedding Cake,10.34,0,0,225,1.76,22.2,ND,ND,ND,ND,0,0,0,1.92,0,0,0,0,0,1.88,0,0,0,2.98,0,0,0,0,0,1.51,0,0,5.78,2.25,0,0,0,0,0,ND,0
Where'S My Bike,10.33,0,0,199,0.86,19.56,ND,ND,ND,ND,0,0,0,0.98,0,0,0,0,0,0.62,0,0,0,1.74,0,0,0,0,0,0,0,0,5.45,1.45,0,0,0,0,0,ND,0
Where'S My Bike,9.65,0,0,205,1.01,20.01,ND,ND,ND,ND,0,0,0,0,0,0,0,0,0,1.77,0,0,0,1.89,0,0,0,0,0,0,0,0,5.97,1.6,0,0,0,0,0,ND,0
White Cookies,11.3,0,0,297,0,29.1,30,0,25.8,0,ND,ND,ND,ND,ND,ND,ND,0.51,0.16,1.9,0.34,0,0,3.55,0,0.07,0,0.02,0.05,0.34,0,0,0.88,0.31,0,0,0,0,0.15,8.29,ND
White Tahoe Cookies,9.16,0,0,278,7.24,27.64,ND,ND,ND,ND,0,0,0,0.91,0,0,0,0,0,3.07,0.52,0,0,3.34,0,0,0,0,0,2.86,0,0,6.05,2.16,0.27,0,0,0,0.82,ND,0
White Tygh Dream,9.55,0.06,0.65,302,17.4,31.21,ND,ND,ND,ND,0.66,0,0,0,0,0,0,0,0,8.56,0,0,0,1.92,0,0.24,0,0,0,0,0,0,3.46,0.78,0,0,0,0,0,ND,0
Wifi #3,7.5,0,0,254,0,23.9,25,0,22.1,0,ND,ND,ND,ND,ND,ND,ND,0.87,0.32,1.67,0.91,0,0,3.74,0,0.11,0,0.03,0.1,1.32,0,0,2.05,0.77,0,0,0,0,0.2,12.1,ND
WildFire,8.2,0,0,174,0,16.5,17,0,15.1,0,ND,ND,ND,ND,ND,ND,ND,0.6,0.2,3.84,0.78,0,0.03,4.1,0,0.14,0,0.03,0.09,1.08,0,0,3.22,1.33,0,0,0,0,0.41,15.85,ND
Wonder Goo,9.5,0,0,181,0,17.4,18,0,15.7,0,ND,ND,ND,ND,ND,ND,ND,4.47,0.12,3.38,1.93,0,0.03,1.37,0,0,0.01,0.03,0.09,0.51,0,0,1.23,0.52,0,0,0,0,0.23,13.94,ND
Wow,11.01,0,0,241,5.41,24.36,ND,ND,ND,ND,0,0,0,1.18,0,0,0,0,0,1.35,0.52,0,0,4.17,0,0,0,0,0,0,0,0,6.7,1.62,0,0,0,0,0,ND,0.43
Young Jedi,14.2,0,0,215,0,21.8,22,0,18.7,0,ND,ND,ND,ND,ND,ND,ND,1.75,0.14,6.41,0.53,0,0.03,1.79,0,0.41,0.03,0.04,0.09,0.15,0,0,1.07,0.33,0,0,0.15,0,0,12.91,ND
Z7,8.5,14,147,0,0,0,0,0,0,12.8,ND,ND,ND,ND,ND,ND,ND,0.16,0.03,5.15,0.1,0,0.03,0.9,0.09,0,0.03,0.03,0.04,0.25,0,0,2.35,1.14,0,0,0.25,0,0.62,11.15,ND
Zkittlez,8.49,0,0,240,6.58,23.72,ND,ND,ND,ND,0,0,0,0.85,0,0,0,0,0,0,0,0,0,2.97,0,0,0,0,0,4.82,0,0,11.91,4.59,0,0.84,0,0,0.98,ND,0